<?xml version="1.0" standalone="no"?>
<!DOCTYPE svg PUBLIC "-//W3C//DTD SVG 20010904//EN"
 "http://www.w3.org/TR/2001/REC-SVG-20010904/DTD/svg10.dtd">
<svg version="1.0" xmlns="http://www.w3.org/2000/svg"
 width="512.000000pt" height="512.000000pt" viewBox="0 0 512.000000 512.000000"
 preserveAspectRatio="xMidYMid meet">
<metadata>
Created by potrace 1.11, written by Peter Selinger 2001-2013
</metadata>
<g transform="translate(0.000000,512.000000) scale(0.100000,-0.100000)"
fill="#000000" stroke="none">
<path d="M2506 5113 c-4 -4 -35 -23 -70 -43 -55 -31 -138 -79 -246 -142 -19
-11 -114 -65 -210 -120 -96 -56 -186 -108 -200 -117 -26 -16 -75 -45 -150 -86
-25 -14 -52 -30 -60 -35 -16 -11 -202 -118 -320 -185 -134 -76 -144 -82 -220
-127 -41 -25 -96 -57 -122 -71 -27 -15 -69 -39 -95 -54 -27 -14 -91 -52 -143
-83 -52 -31 -139 -81 -192 -111 -54 -29 -98 -57 -98 -62 0 -4 12 -13 28 -19
15 -7 34 -17 42 -24 8 -6 35 -23 60 -36 25 -14 133 -76 240 -138 107 -62 254
-147 325 -188 218 -126 247 -142 256 -142 5 0 9 -4 9 -9 0 -5 8 -11 18 -14 9
-4 37 -18 61 -32 68 -41 447 -260 529 -306 20 -12 152 -88 292 -169 140 -81
275 -159 300 -173 l45 -25 0 -1276 c0 -702 4 -1276 8 -1276 8 0 82 39 101 53
6 4 96 57 200 118 104 60 195 114 202 120 11 9 13 267 13 1290 -1 703 -4 1279
-8 1279 -5 0 -71 37 -147 81 -76 45 -157 92 -179 104 -22 12 -99 56 -172 98
-72 42 -147 85 -165 95 -18 11 -105 61 -193 112 -145 84 -212 122 -270 154
-11 6 -22 13 -25 16 -3 3 -14 10 -25 16 -69 38 -118 66 -154 88 -22 14 -42 26
-45 26 -2 0 -72 40 -154 88 -114 67 -148 92 -140 100 7 7 18 12 25 12 7 0 13
4 13 8 0 4 15 15 33 23 17 9 72 39 121 67 l88 52 57 -34 c31 -19 92 -55 136
-80 44 -26 87 -51 95 -56 8 -6 22 -13 30 -17 8 -4 43 -24 78 -45 34 -21 64
-38 67 -38 3 0 29 -16 59 -35 30 -19 57 -35 60 -35 2 0 50 -27 105 -60 56 -33
105 -60 110 -60 5 0 11 -3 13 -7 2 -5 17 -15 33 -24 17 -9 170 -97 340 -196
171 -100 326 -190 345 -200 127 -72 150 -86 155 -92 4 -7 7 -66 5 -101 -1 -8
0 -58 1 -111 1 -53 -1 -101 -5 -107 -3 -6 -3 -13 2 -16 4 -2 6 -22 5 -43 -4
-53 -4 -47 -2 -154 1 -53 -1 -101 -5 -107 -3 -6 -3 -13 2 -16 4 -2 6 -22 5
-43 -4 -53 -4 -47 -2 -154 1 -53 -1 -101 -5 -107 -3 -6 -3 -13 2 -16 4 -2 6
-22 5 -43 -4 -52 -4 -46 -3 -163 0 -58 0 -112 0 -120 -1 -8 0 -45 1 -81 2 -36
-1 -71 -5 -77 -4 -7 -4 -17 0 -24 10 -16 11 -68 1 -68 -5 0 -5 -5 -1 -12 7
-10 10 -167 4 -193 -1 -5 -2 -12 -1 -15 7 -18 7 -70 1 -80 -4 -7 -4 -27 0 -45
4 -18 4 -39 -1 -46 -4 -7 -5 -17 -2 -23 9 -14 9 -66 0 -66 -5 0 -5 -5 -1 -12
6 -9 7 -75 4 -223 -1 -5 -1 -39 0 -75 0 -36 0 -74 0 -85 -2 -105 1 -137 13
-127 14 12 111 67 147 85 14 6 27 14 30 17 3 4 78 48 168 100 l162 93 0 1281
0 1281 -96 55 c-54 30 -115 66 -138 79 -245 142 -309 179 -361 207 -33 19 -67
38 -75 44 -8 5 -46 27 -85 49 -38 22 -92 54 -120 69 -291 168 -516 298 -545
315 -19 10 -72 41 -118 68 -45 27 -86 49 -90 49 -10 1 -56 40 -51 44 2 2 67
40 143 84 114 66 142 79 158 71 11 -6 107 -62 215 -125 107 -63 199 -114 204
-114 5 0 9 -4 9 -10 0 -5 5 -10 10 -10 6 0 86 -44 178 -98 92 -54 174 -101
182 -105 8 -4 29 -15 45 -26 62 -38 371 -215 392 -225 13 -6 23 -14 23 -18 0
-5 4 -8 9 -8 5 0 49 -23 98 -51 48 -28 104 -61 123 -71 19 -11 69 -40 111 -64
l76 -44 0 -1270 c0 -698 2 -1272 4 -1275 3 -2 40 16 82 40 42 25 81 45 87 45
5 0 10 4 10 9 0 5 8 11 18 15 9 3 46 23 82 45 36 22 74 45 85 50 11 5 49 26
85 47 l66 39 -1 1277 c0 838 -3 1280 -10 1286 -19 16 -345 202 -355 202 -5 0
-10 4 -10 9 0 5 -8 11 -17 14 -18 6 -64 32 -156 88 -26 16 -50 29 -53 29 -3 0
-30 16 -60 35 -30 19 -56 35 -59 35 -2 0 -37 20 -77 44 -69 41 -798 463 -883
511 -22 12 -150 86 -285 164 -134 77 -247 141 -251 141 -3 0 -9 -3 -13 -7z"/>
<path d="M311 2525 c0 -1160 1 -1247 17 -1252 9 -4 50 -26 90 -50 41 -24 76
-43 78 -43 3 0 17 -8 32 -19 33 -23 375 -220 417 -241 16 -8 32 -17 35 -21 3
-3 23 -16 45 -28 22 -12 47 -25 55 -30 132 -80 169 -101 173 -101 3 0 34 -17
68 -38 35 -22 84 -50 109 -64 25 -14 86 -49 135 -78 50 -29 99 -58 110 -64 49
-28 143 -82 170 -99 17 -10 38 -20 48 -23 9 -4 17 -10 17 -15 0 -5 4 -9 9 -9
6 0 98 -52 207 -115 108 -63 198 -115 199 -115 1 0 29 -16 61 -35 32 -19 63
-35 68 -35 8 0 10 362 9 1203 -1 661 -2 1218 -2 1239 -1 39 -5 42 -131 111
-30 16 -62 36 -71 43 -8 8 -18 14 -22 14 -3 0 -88 48 -189 107 -101 58 -203
117 -228 131 -25 14 -93 54 -153 89 -59 35 -112 63 -117 63 -6 0 -10 5 -10 10
0 6 -4 10 -10 10 -5 0 -33 14 -62 31 -73 44 -114 67 -178 102 -30 16 -62 36
-71 43 -8 8 -18 14 -21 14 -4 0 -73 39 -155 86 -81 48 -168 98 -193 112 -25
14 -139 80 -255 147 -116 67 -217 125 -225 128 -8 4 -25 14 -37 23 l-22 16 0
-1247z m667 256 c75 -43 155 -89 177 -101 22 -12 65 -37 95 -55 155 -92 300
-175 306 -175 4 0 15 -6 23 -14 9 -7 36 -25 61 -38 25 -14 84 -48 132 -77 48
-28 91 -51 97 -51 6 0 11 -3 11 -8 0 -4 14 -13 30 -20 l30 -14 0 -639 0 -640
-42 23 c-24 13 -44 26 -46 31 -2 4 -8 7 -12 7 -7 0 -199 108 -270 151 -17 10
-242 139 -310 177 -25 14 -78 45 -118 69 -41 24 -76 43 -79 43 -3 0 -17 8 -31
18 -15 11 -52 33 -82 49 -30 17 -70 39 -87 49 l-33 19 0 638 c0 350 2 637 5
637 3 0 68 -35 143 -79z"/>
</g>
</svg>
